alu2130/simulation/qsim/alu2130.msim.vcd
$comment
	File created using the following command:
		vcd file alu2130.msim.vcd -direction
$end
$date
	Mon Nov 21 11:41:48 2022
$end
$version
	ModelSim Version 10.5b
$end
$timescale
	1ps
$end

$scope module alu2130_vlg_vec_tst $end
$var reg 8 ! A [7:0] $end
$var reg 8 " B [7:0] $end
$var reg 1 # CN $end
$var reg 1 $ M $end
$var reg 4 % S [3:0] $end
$var wire 1 & AEQB $end
$var wire 1 ' CN4 $end
$var wire 1 ( F [7] $end
$var wire 1 ) F [6] $end
$var wire 1 * F [5] $end
$var wire 1 + F [4] $end
$var wire 1 , F [3] $end
$var wire 1 - F [2] $end
$var wire 1 . F [1] $end
$var wire 1 / F [0] $end

$scope module i1 $end
$var wire 1 0 gnd $end
$var wire 1 1 vcc $end
$var wire 1 2 unknown $end
$var tri1 1 3 devclrn $end
$var tri1 1 4 devpor $end
$var tri1 1 5 devoe $end
$var wire 1 6 CN4~output_o $end
$var wire 1 7 AEQB~output_o $end
$var wire 1 8 F[7]~output_o $end
$var wire 1 9 F[6]~output_o $end
$var wire 1 : F[5]~output_o $end
$var wire 1 ; F[4]~output_o $end
$var wire 1 < F[3]~output_o $end
$var wire 1 = F[2]~output_o $end
$var wire 1 > F[1]~output_o $end
$var wire 1 ? F[0]~output_o $end
$var wire 1 @ S[2]~input_o $end
$var wire 1 A S[3]~input_o $end
$var wire 1 B B[7]~input_o $end
$var wire 1 C A[7]~input_o $end
$var wire 1 D inst|52~0_combout $end
$var wire 1 E A[6]~input_o $end
$var wire 1 F B[6]~input_o $end
$var wire 1 G S[0]~input_o $end
$var wire 1 H S[1]~input_o $end
$var wire 1 I inst|45~0_combout $end
$var wire 1 J inst|51~0_combout $end
$var wire 1 K inst|78~0_combout $end
$var wire 1 L B[5]~input_o $end
$var wire 1 M A[5]~input_o $end
$var wire 1 N inst|44~0_combout $end
$var wire 1 O inst|47~0_combout $end
$var wire 1 P B[4]~input_o $end
$var wire 1 Q A[4]~input_o $end
$var wire 1 R inst|43~0_combout $end
$var wire 1 S inst|78~1_combout $end
$var wire 1 T inst|46~0_combout $end
$var wire 1 U A[3]~input_o $end
$var wire 1 V B[3]~input_o $end
$var wire 1 W inst1|52~0_combout $end
$var wire 1 X inst1|51~0_combout $end
$var wire 1 Y B[1]~input_o $end
$var wire 1 Z A[1]~input_o $end
$var wire 1 [ inst1|44~0_combout $end
$var wire 1 \ B[2]~input_o $end
$var wire 1 ] A[2]~input_o $end
$var wire 1 ^ inst1|48~0_combout $end
$var wire 1 _ A[0]~input_o $end
$var wire 1 ` B[0]~input_o $end
$var wire 1 a inst1|43~0_combout $end
$var wire 1 b inst1|47~0_combout $end
$var wire 1 c CN~input_o $end
$var wire 1 d inst1|46~0_combout $end
$var wire 1 e inst1|78~0_combout $end
$var wire 1 f inst1|78~1_combout $end
$var wire 1 g inst1|45~0_combout $end
$var wire 1 h inst1|78~2_combout $end
$var wire 1 i inst|78~2_combout $end
$var wire 1 j inst|48~0_combout $end
$var wire 1 k inst|78~3_combout $end
$var wire 1 l inst1|78~3_combout $end
$var wire 1 m M~input_o $end
$var wire 1 n inst1|77~0_combout $end
$var wire 1 o inst1|77~1_combout $end
$var wire 1 p inst1|79~combout $end
$var wire 1 q inst1|81~combout $end
$var wire 1 r inst1|82~0_combout $end
$var wire 1 s inst1|80~0_combout $end
$var wire 1 t inst1|83~0_combout $end
$var wire 1 u inst|77~0_combout $end
$var wire 1 v inst|77~1_combout $end
$var wire 1 w inst|82~0_combout $end
$var wire 1 x inst|79~combout $end
$var wire 1 y inst|83~0_combout $end
$var wire 1 z inst|80~combout $end
$var wire 1 { inst2~combout $end
$var wire 1 | inst|81~combout $end
$upscope $end
$upscope $end
$enddefinitions $end
#0
$dumpvars
b1101101 !
b11101010 "
0#
1$
b0 %
0&
1'
0/
1.
0-
0,
1+
0*
0)
1(
00
11
x2
13
14
15
16
07
18
09
0:
1;
0<
0=
1>
0?
0@
0A
1B
0C
0D
1E
1F
0G
0H
1I
0J
1K
1L
1M
1N
0O
0P
0Q
0R
1S
0T
1U
1V
0W
1X
1Y
0Z
0[
0\
1]
0^
1_
0`
1a
0b
0c
0d
0e
1f
1g
1h
1i
0j
1k
1l
1m
1n
0o
0p
0q
0r
1s
0t
1u
1v
0w
0x
0y
0z
0{
1|
$end
#20000
b1 %
1G
1[
1J
1q
0l
0f
0K
0v
08
0>
0h
0.
0(
#40000
b11 %
b10 %
0G
1H
0[
1R
0J
0q
1l
1f
1z
0S
1K
1v
18
0;
1>
1h
0i
1.
0+
1(
1i
#60000
b11 %
1G
1[
1J
1q
0l
0f
0K
0v
08
0>
0h
0.
0(
0i
0k
06
0'
#80000
b111 %
b101 %
b100 %
0G
0H
1@
0[
0R
0J
1d
1^
0q
1l
0z
1S
1K
0s
1v
1r
1=
18
1?
1;
1>
1i
1.
1+
1/
1(
1-
1k
16
1'
#100000
b101 %
1G
1[
1J
1q
0l
0K
0v
08
0>
0.
0(
#120000
b111 %
b110 %
0G
1H
0[
1R
0J
0q
1l
1z
0S
1K
1v
18
0;
1>
0i
1.
0+
1(
#140000
b111 %
1G
1[
1J
1q
0l
0K
0v
08
0>
0.
0(
0k
06
0'
#160000
b1111 %
b1011 %
b1001 %
b1000 %
0G
0H
0@
1A
0[
0R
0J
1j
0d
0^
1W
1O
0q
1l
0z
1K
1s
0|
1v
1w
0r
1o
1<
0=
19
18
1:
0?
1;
1>
1y
1.
1+
0/
1*
1(
1)
0-
1,
1k
16
1'
1{
17
1&
#180000
b1001 %
1G
1[
1J
1q
0l
0K
0v
08
0>
0.
0(
0k
0{
07
06
0'
0&
#200000
b1011 %
b1010 %
0G
1H
0[
1R
0J
0q
1l
1z
1K
1v
18
0;
1>
1.
0+
1(
1k
16
1'
#220000
b1011 %
1G
1[
1J
1q
0l
0K
0v
08
0>
0.
0(
0k
06
0'
#240000
b1111 %
b1101 %
b1100 %
0G
0H
1@
0[
0R
0J
1d
1^
0q
1l
0z
1K
0s
1v
1r
1=
18
1?
1;
1>
1t
1.
1+
1/
1(
1-
1{
1k
16
17
1&
1'
#260000
b1101 %
1G
1[
1J
1q
0l
0K
0v
08
0>
0t
0.
0(
0k
06
0'
0{
07
0&
#280000
b1111 %
b1110 %
0G
1H
0[
1R
0J
0q
1l
1z
1K
1v
18
0;
1>
1t
1.
0+
1(
1k
16
1'
1{
17
1&
#300000
b1111 %
1G
1[
1J
1q
0l
0K
0v
08
0>
0t
0.
0(
0k
06
0'
0{
07
0&
#320000
0$
b111 %
b11 %
b1 %
b0 %
0m
0G
0H
0@
0A
0[
0R
0J
0j
0d
0^
0W
0O
0q
1l
1f
0z
1x
1S
1K
1s
1|
0y
1v
0w
0r
0o
0<
0=
09
18
0:
0?
1;
1>
0n
1h
0|
1i
1.
1+
0/
0*
1(
0)
0-
0,
1r
1k
16
1=
1:
1z
0u
1*
1-
1'
1o
1w
19
1<
0;
1y
0+
1,
1)
0v
08
0(
#340000
1#
1c
0s
1p
1e
1?
1t
1q
1/
0>
0t
0.
1{
17
1&
0{
07
0&
#360000
b1 %
0#
1G
0c
1[
1J
1s
0p
0e
0?
0l
0f
0K
0/
1v
18
1n
0h
1(
0r
0=
0z
0-
0o
0<
1;
1+
0,
1{
17
1&
#380000
1#
1c
0s
1p
1e
1?
0q
1l
1f
1/
1>
0n
1h
1.
1r
1=
1z
1-
1o
1<
0;
1t
0+
1,
0{
07
0&
1{
17
1&
#400000
b11 %
b10 %
0#
0G
1H
0c
0[
1R
0J
1s
0p
0e
0?
0z
0S
1K
0t
0/
0v
08
1;
1+
0(
0{
07
0&
#420000
1#
1c
0s
1p
1e
1?
1t
1q
1/
0>
0t
0.
1{
17
1&
0{
07
0&
#440000
b11 %
0#
1G
0c
1[
1J
1s
0p
0e
0?
0l
0f
0K
0/
1v
18
1n
0h
1(
0r
1{
17
0=
1z
0x
0i
0-
1&
0o
0<
0;
1|
0y
1u
0+
0,
0{
0w
0k
06
09
07
0:
0*
0&
0)
0'
0v
08
0(
#460000
1#
1c
0s
1p
1e
1?
0q
1l
1f
1/
1>
0n
1h
1.
1r
1=
0z
1x
1i
1-
1o
1<
1;
0|
0u
1t
1+
1,
1w
1k
16
19
1:
1y
1*
1)
1'
1v
1{
17
18
1(
1&
#480000
b111 %
b101 %
b100 %
0#
0G
0H
1@
0c
0[
0R
0J
1d
1^
1s
0p
0e
0?
0f
1z
1S
1K
0s
1n
0t
0/
0v
0r
0=
08
1?
0;
0h
0+
1/
0(
0-
0{
0o
0<
07
0z
0&
0,
1;
1+
#500000
1#
1c
1s
0?
0/
#520000
b101 %
0#
1G
0c
1[
1J
0s
1?
1q
0l
0K
1/
1v
18
0>
0.
1(
1r
1{
17
1=
1-
1&
#540000
1#
1c
1s
0?
0/
#560000
b111 %
b110 %
0#
0G
1H
0c
0[
1R
0J
0s
1?
0q
1l
1z
0x
0S
1K
1/
0v
08
0;
1>
1|
0y
0i
1.
0+
0(
0r
0{
07
0=
0:
1u
0*
0-
0&
0w
09
0)
1v
18
1(
#580000
1#
1c
1s
0?
0/
#600000
b111 %
0#
1G
0c
1[
1J
0s
1?
1q
0l
0K
1/
0v
08
0>
0.
0(
1r
0k
06
1=
1-
0'
#620000
1#
1c
1s
0?
0/
#640000
b1111 %
b1011 %
b1001 %
b1000 %
0#
0G
0H
0@
1A
0c
0[
0R
0J
1j
0d
0^
1W
1O
0s
1?
0q
1l
0z
1x
1K
1s
0|
1/
1v
1w
0r
1o
1<
0=
19
18
1:
0?
1;
1>
0n
1|
1.
1+
0/
1*
1(
1)
0-
1,
1r
1k
16
1=
0:
0*
1-
1'
0o
0<
0,
#660000
1#
1c
0s
1p
1e
1?
1q
1/
0>
0.
#680000
b1001 %
0#
1G
0c
1[
1J
1s
0p
0e
0?
0l
0K
0/
0v
08
1n
0(
0r
0k
06
0=
0-
0'
1o
1<
1,
#700000
1#
1c
0s
1p
1e
1?
0q
1l
1/
1>
0n
1.
1r
1=
1t
1-
0o
0<
0t
0,
1{
17
1&
0{
07
0&
#720000
b1011 %
b1010 %
0#
0G
1H
0c
0[
1R
0J
1s
0p
0e
0?
1z
0x
1K
0/
1v
18
0;
0|
1y
0+
1(
1k
16
1:
1*
1'
#740000
1#
1c
0s
1p
1e
1?
1q
1/
0>
0.
#760000
b1011 %
0#
1G
0c
1[
1J
1s
0p
0e
0?
0l
0K
0/
0v
08
1n
0(
0r
0k
06
0=
0-
0'
1o
1<
1,
#780000
1#
1c
0s
1p
1e
1?
0q
1l
1/
1>
0n
1.
1r
1=
1t
1-
0o
0<
0t
0,
1{
17
1&
0{
07
0&
#800000
b1111 %
b1101 %
b1100 %
0#
0G
0H
1@
0c
0[
0R
0J
1d
1^
1s
0p
0e
0?
0z
1x
1K
0s
1n
0/
1v
0r
0=
18
1?
1;
1|
0y
1+
1/
1(
0-
1{
1k
1o
1<
16
17
0:
0*
1&
1'
1,
0{
07
0&
#820000
1#
1c
1s
0?
0/
#840000
b1101 %
0#
1G
0c
1[
1J
0s
1?
1q
0l
0K
1/
0v
08
0>
0.
0(
1r
0k
06
1=
1-
0'
#860000
1#
1c
1s
0?
0/
#880000
b1111 %
b1110 %
0#
0G
1H
0c
0[
1R
0J
0s
1?
0q
1l
1z
0x
1K
1/
1v
18
0;
1>
1t
0|
1y
1.
0+
1(
0r
1k
16
0=
1:
0t
1*
0-
1'
1{
17
1&
0{
07
0&
#900000
1#
1c
1s
0?
0/
#920000
b1111 %
0#
1G
0c
1[
1J
0s
1?
1q
0l
0K
1/
0v
08
0>
0.
0(
1r
0k
06
1=
1-
0'
#940000
1#
1c
1s
0?
0/
#960000
b111 %
b11 %
b1 %
b0 %
0#
0G
0H
0@
0A
0c
0[
0R
0J
0j
0d
0^
0W
0O
0s
1?
0q
1l
1f
0z
1x
1S
1K
1s
1|
0y
1/
1v
0w
0r
0o
0<
0=
09
18
0:
0?
1;
1>
0n
1h
0|
1i
1.
1+
0/
0*
1(
0)
0-
0,
1r
1k
16
1=
1:
1z
0u
1*
1-
1'
1o
1w
19
1<
0;
1y
0+
1,
1)
0v
08
0(
