mux21a2130/simulation/qsim/mux21a2130.msim.vcd
$comment
	File created using the following command:
		vcd file mux21a2130.msim.vcd -direction
$end
$date
	Mon Nov 21 11:00:19 2022
$end
$version
	ModelSim Version 10.5b
$end
$timescale
	1ps
$end

$scope module mux21a2130_vhd_vec_tst $end
$var wire 1 ! a $end
$var wire 1 " b $end
$var wire 1 # s $end
$var wire 1 $ y $end

$scope module i1 $end
$var wire 1 % gnd $end
$var wire 1 & vcc $end
$var wire 1 ' unknown $end
$var wire 1 ( devoe $end
$var wire 1 ) devclrn $end
$var wire 1 * devpor $end
$var wire 1 + ww_devoe $end
$var wire 1 , ww_devclrn $end
$var wire 1 - ww_devpor $end
$var wire 1 . ww_a $end
$var wire 1 / ww_b $end
$var wire 1 0 ww_s $end
$var wire 1 1 ww_y $end
$var wire 1 2 \y~output_o\ $end
$var wire 1 3 \s~input_o\ $end
$var wire 1 4 \a~input_o\ $end
$var wire 1 5 \b~input_o\ $end
$var wire 1 6 \y~0_combout\ $end
$upscope $end
$upscope $end
$enddefinitions $end
#0
$dumpvars
0!
0"
0#
0$
0%
1&
x'
1(
1)
1*
1+
1,
1-
0.
0/
00
01
02
03
04
05
06
$end
#2500
1!
1.
14
16
12
11
1$
#5000
0!
1"
0.
1/
15
04
06
02
01
0$
#7500
1!
1.
14
16
12
11
1$
#10000
0!
0"
0.
0/
05
04
06
02
01
0$
#12500
1!
1.
14
16
12
11
1$
#15000
0!
1"
0.
1/
15
04
06
02
01
0$
#17500
1!
1.
14
16
12
11
1$
#20000
0!
0"
0.
0/
05
04
06
02
01
0$
#22500
1!
1.
14
16
12
11
1$
#25000
0!
1"
0.
1/
15
04
06
02
01
0$
#27500
1!
1.
14
16
12
11
1$
#30000
0!
0"
0.
0/
05
04
06
02
01
0$
#32500
1!
1.
14
16
12
11
1$
#35000
0!
1"
0.
1/
15
04
06
02
01
0$
#37500
1!
1.
14
16
12
11
1$
#40000
0!
0"
0.
0/
05
04
06
02
01
0$
#42500
1!
1.
14
16
12
11
1$
#45000
0!
1"
0.
1/
15
04
06
02
01
0$
#47500
1!
1.
14
16
12
11
1$
#50000
0!
0"
0.
0/
05
04
06
02
01
0$
#52500
1!
1.
14
16
12
11
1$
#55000
0!
1"
0.
1/
15
04
06
02
01
0$
#57500
1!
1.
14
16
12
11
1$
#60000
0!
0"
0.
0/
05
04
06
02
01
0$
#62500
1!
1.
14
16
12
11
1$
#65000
0!
1"
0.
1/
15
04
06
02
01
0$
#67500
1!
1.
14
16
12
11
1$
#70000
0!
0"
0.
0/
05
04
06
02
01
0$
#72500
1!
1.
14
16
12
11
1$
#75000
0!
1"
0.
1/
15
04
06
02
01
0$
#77500
1!
1.
14
16
12
11
1$
#80000
0!
0"
0.
0/
05
04
06
02
01
0$
#82500
1!
1.
14
16
12
11
1$
#85000
0!
1"
0.
1/
15
04
06
02
01
0$
#87500
1!
1.
14
16
12
11
1$
#90000
0!
0"
0.
0/
05
04
06
02
01
0$
#92500
1!
1.
14
16
12
11
1$
#95000
0!
1"
0.
1/
15
04
06
02
01
0$
#97500
1!
1.
14
16
12
11
1$
#100000
0!
0"
0.
0/
05
04
06
02
01
0$
#102500
1!
1.
14
16
12
11
1$
#105000
0!
1"
0.
1/
15
04
06
02
01
0$
#107500
1!
1.
14
16
12
11
1$
#110000
0!
0"
0.
0/
05
04
06
02
01
0$
#112500
1!
1.
14
16
12
11
1$
#115000
0!
1"
0.
1/
15
04
06
02
01
0$
#117500
1!
1.
14
16
12
11
1$
#120000
0!
0"
0.
0/
05
04
06
02
01
0$
#122500
1!
1.
14
16
12
11
1$
#125000
0!
1"
0.
1/
15
04
06
02
01
0$
#127500
1!
1.
14
16
12
11
1$
#130000
0!
0"
0.
0/
05
04
06
02
01
0$
#132500
1!
1.
14
16
12
11
1$
#135000
0!
1"
0.
1/
15
04
06
02
01
0$
#137500
1!
1.
14
16
12
11
1$
#140000
0!
0"
0.
0/
05
04
06
02
01
0$
#142500
1!
1.
14
16
12
11
1$
#145000
0!
1"
0.
1/
15
04
06
02
01
0$
#147500
1!
1.
14
16
12
11
1$
#150000
0!
0"
0.
0/
05
04
06
02
01
0$
#152500
1!
1.
14
16
12
11
1$
#155000
0!
1"
0.
1/
15
04
06
02
01
0$
#157500
1!
1.
14
16
12
11
1$
#160000
0!
0"
0.
0/
05
04
06
02
01
0$
#162500
1!
1.
14
16
12
11
1$
#165000
0!
1"
0.
1/
15
04
06
02
01
0$
#167500
1!
1.
14
16
12
11
1$
#170000
0!
0"
0.
0/
05
04
06
02
01
0$
#172500
1!
1.
14
16
12
11
1$
#175000
0!
1"
0.
1/
15
04
06
02
01
0$
#177500
1!
1.
14
16
12
11
1$
#180000
0!
0"
0.
0/
05
04
06
02
01
0$
#182500
1!
1.
14
16
12
11
1$
#185000
0!
1"
0.
1/
15
04
06
02
01
0$
#187500
1!
1.
14
16
12
11
1$
#190000
0!
0"
0.
0/
05
04
06
02
01
0$
#192500
1!
1.
14
16
12
11
1$
#195000
0!
1"
0.
1/
15
04
06
02
01
0$
#197500
1!
1.
14
16
12
11
1$
#200000
0!
0"
0.
0/
05
04
06
02
01
0$
#202500
1!
1.
14
16
12
11
1$
#205000
0!
1"
0.
1/
15
04
06
02
01
0$
#207500
1!
1.
14
16
12
11
1$
#210000
0!
0"
0.
0/
05
04
06
02
01
0$
#212500
1!
1.
14
16
12
11
1$
#215000
0!
1"
0.
1/
15
04
06
02
01
0$
#217500
1!
1.
14
16
12
11
1$
#220000
0!
0"
0.
0/
05
04
06
02
01
0$
#222500
1!
1.
14
16
12
11
1$
#225000
0!
1"
0.
1/
15
04
06
02
01
0$
#227500
1!
1.
14
16
12
11
1$
#230000
0!
0"
0.
0/
05
04
06
02
01
0$
#232500
1!
1.
14
16
12
11
1$
#235000
0!
1"
0.
1/
15
04
06
02
01
0$
#237500
1!
1.
14
16
12
11
1$
#240000
0!
0"
0.
0/
05
04
06
02
01
0$
#242500
1!
1.
14
16
12
11
1$
#245000
0!
1"
0.
1/
15
04
06
02
01
0$
#247500
1!
1.
14
16
12
11
1$
#250000
0!
0"
0.
0/
05
04
06
02
01
0$
#252500
1!
1.
14
16
12
11
1$
#255000
0!
1"
0.
1/
15
04
06
02
01
0$
#257500
1!
1.
14
16
12
11
1$
#260000
0!
0"
0.
0/
05
04
06
02
01
0$
#262500
1!
1.
14
16
12
11
1$
#265000
0!
1"
0.
1/
15
04
06
02
01
0$
#267500
1!
1.
14
16
12
11
1$
#270000
0!
0"
0.
0/
05
04
06
02
01
0$
#272500
1!
1.
14
16
12
11
1$
#275000
0!
1"
0.
1/
15
04
06
02
01
0$
#277500
1!
1.
14
16
12
11
1$
#280000
0!
0"
0.
0/
05
04
06
02
01
0$
#282500
1!
1.
14
16
12
11
1$
#285000
0!
1"
0.
1/
15
04
06
02
01
0$
#287500
1!
1.
14
16
12
11
1$
#290000
0!
0"
0.
0/
05
04
06
02
01
0$
#292500
1!
1.
14
16
12
11
1$
#295000
0!
1"
0.
1/
15
04
06
02
01
0$
#297500
1!
1.
14
16
12
11
1$
#300000
0!
0"
0.
0/
05
04
06
02
01
0$
#302500
1!
1.
14
16
12
11
1$
#305000
0!
1"
0.
1/
15
04
06
02
01
0$
#307500
1!
1.
14
16
12
11
1$
#310000
0!
0"
0.
0/
05
04
06
02
01
0$
#312500
1!
1.
14
16
12
11
1$
#315000
0!
1"
0.
1/
15
04
06
02
01
0$
#317500
1!
1.
14
16
12
11
1$
#320000
0!
0"
0.
0/
05
04
06
02
01
0$
#322500
1!
1.
14
16
12
11
1$
#325000
0!
1"
0.
1/
15
04
06
02
01
0$
#327500
1!
1.
14
16
12
11
1$
#330000
0!
0"
0.
0/
05
04
06
02
01
0$
#332500
1!
1.
14
16
12
11
1$
#335000
0!
1"
0.
1/
15
04
06
02
01
0$
#337500
1!
1.
14
16
12
11
1$
#340000
0!
0"
0.
0/
05
04
06
02
01
0$
#342500
1!
1.
14
16
12
11
1$
#345000
0!
1"
0.
1/
15
04
06
02
01
0$
#347500
1!
1.
14
16
12
11
1$
#350000
0!
0"
0.
0/
05
04
06
02
01
0$
#352500
1!
1.
14
16
12
11
1$
#355000
0!
1"
0.
1/
15
04
06
02
01
0$
#357500
1!
1.
14
16
12
11
1$
#360000
0!
0"
0.
0/
05
04
06
02
01
0$
#362500
1!
1.
14
16
12
11
1$
#365000
0!
1"
0.
1/
15
04
06
02
01
0$
#367500
1!
1.
14
16
12
11
1$
#370000
0!
0"
0.
0/
05
04
06
02
01
0$
#372500
1!
1.
14
16
12
11
1$
#375000
0!
1"
0.
1/
15
04
06
02
01
0$
#377500
1!
1.
14
16
12
11
1$
#380000
0!
0"
0.
0/
05
04
06
02
01
0$
#382500
1!
1.
14
16
12
11
1$
#385000
0!
1"
0.
1/
15
04
06
02
01
0$
#387500
1!
1.
14
16
12
11
1$
#390000
0!
0"
0.
0/
05
04
06
02
01
0$
#392500
1!
1.
14
16
12
11
1$
#395000
0!
1"
0.
1/
15
04
06
02
01
0$
#397500
1!
1.
14
16
12
11
1$
#400000
0!
0"
0.
0/
05
04
06
02
01
0$
#402500
1!
1.
14
16
12
11
1$
#405000
0!
1"
0.
1/
15
04
06
02
01
0$
#407500
1!
1.
14
16
12
11
1$
#410000
0!
0"
0.
0/
05
04
06
02
01
0$
#412500
1!
1.
14
16
12
11
1$
#415000
0!
1"
0.
1/
15
04
06
02
01
0$
#417500
1!
1.
14
16
12
11
1$
#420000
0!
0"
0.
0/
05
04
06
02
01
0$
#422500
1!
1.
14
16
12
11
1$
#425000
0!
1"
0.
1/
15
04
06
02
01
0$
#427500
1!
1.
14
16
12
11
1$
#430000
0!
0"
0.
0/
05
04
06
02
01
0$
#432500
1!
1.
14
16
12
11
1$
#435000
0!
1"
0.
1/
15
04
06
02
01
0$
#437500
1!
1.
14
16
12
11
1$
#440000
0!
0"
0.
0/
05
04
06
02
01
0$
#442500
1!
1.
14
16
12
11
1$
#445000
0!
1"
0.
1/
15
04
06
02
01
0$
#447500
1!
1.
14
16
12
11
1$
#450000
0!
0"
0.
0/
05
04
06
02
01
0$
#452500
1!
1.
14
16
12
11
1$
#455000
0!
1"
0.
1/
15
04
06
02
01
0$
#457500
1!
1.
14
16
12
11
1$
#460000
0!
0"
0.
0/
05
04
06
02
01
0$
#462500
1!
1.
14
16
12
11
1$
#465000
0!
1"
0.
1/
15
04
06
02
01
0$
#467500
1!
1.
14
16
12
11
1$
#470000
0!
0"
0.
0/
05
04
06
02
01
0$
#472500
1!
1.
14
16
12
11
1$
#475000
0!
1"
0.
1/
15
04
06
02
01
0$
#477500
1!
1.
14
16
12
11
1$
#480000
0!
0"
0.
0/
05
04
06
02
01
0$
#482500
1!
1.
14
16
12
11
1$
#485000
0!
1"
0.
1/
15
04
06
02
01
0$
#487500
1!
1.
14
16
12
11
1$
#490000
0!
0"
0.
0/
05
04
06
02
01
0$
#492500
1!
1.
14
16
12
11
1$
#495000
0!
1"
0.
1/
15
04
06
02
01
0$
#497500
1!
1.
14
16
12
11
1$
#500000
0!
0"
1#
0.
0/
10
13
05
04
06
02
01
0$
#502500
1!
1.
14
#505000
0!
1"
0.
1/
15
04
16
12
11
1$
#507500
1!
1.
14
#510000
0!
0"
0.
0/
05
04
06
02
01
0$
#512500
1!
1.
14
#515000
0!
1"
0.
1/
15
04
16
12
11
1$
#517500
1!
1.
14
#520000
0!
0"
0.
0/
05
04
06
02
01
0$
#522500
1!
1.
14
#525000
0!
1"
0.
1/
15
04
16
12
11
1$
#527500
1!
1.
14
#530000
0!
0"
0.
0/
05
04
06
02
01
0$
#532500
1!
1.
14
#535000
0!
1"
0.
1/
15
04
16
12
11
1$
#537500
1!
1.
14
#540000
0!
0"
0.
0/
05
04
06
02
01
0$
#542500
1!
1.
14
#545000
0!
1"
0.
1/
15
04
16
12
11
1$
#547500
1!
1.
14
#550000
0!
0"
0.
0/
05
04
06
02
01
0$
#552500
1!
1.
14
#555000
0!
1"
0.
1/
15
04
16
12
11
1$
#557500
1!
1.
14
#560000
0!
0"
0.
0/
05
04
06
02
01
0$
#562500
1!
1.
14
#565000
0!
1"
0.
1/
15
04
16
12
11
1$
#567500
1!
1.
14
#570000
0!
0"
0.
0/
05
04
06
02
01
0$
#572500
1!
1.
14
#575000
0!
1"
0.
1/
15
04
16
12
11
1$
#577500
1!
1.
14
#580000
0!
0"
0.
0/
05
04
06
02
01
0$
#582500
1!
1.
14
#585000
0!
1"
0.
1/
15
04
16
12
11
1$
#587500
1!
1.
14
#590000
0!
0"
0.
0/
05
04
06
02
01
0$
#592500
1!
1.
14
#595000
0!
1"
0.
1/
15
04
16
12
11
1$
#597500
1!
1.
14
#600000
0!
0"
0.
0/
05
04
06
02
01
0$
#602500
1!
1.
14
#605000
0!
1"
0.
1/
15
04
16
12
11
1$
#607500
1!
1.
14
#610000
0!
0"
0.
0/
05
04
06
02
01
0$
#612500
1!
1.
14
#615000
0!
1"
0.
1/
15
04
16
12
11
1$
#617500
1!
1.
14
#620000
0!
0"
0.
0/
05
04
06
02
01
0$
#622500
1!
1.
14
#625000
0!
1"
0.
1/
15
04
16
12
11
1$
#627500
1!
1.
14
#630000
0!
0"
0.
0/
05
04
06
02
01
0$
#632500
1!
1.
14
#635000
0!
1"
0.
1/
15
04
16
12
11
1$
#637500
1!
1.
14
#640000
0!
0"
0.
0/
05
04
06
02
01
0$
#642500
1!
1.
14
#645000
0!
1"
0.
1/
15
04
16
12
11
1$
#647500
1!
1.
14
#650000
0!
0"
0.
0/
05
04
06
02
01
0$
#652500
1!
1.
14
#655000
0!
1"
0.
1/
15
04
16
12
11
1$
#657500
1!
1.
14
#660000
0!
0"
0.
0/
05
04
06
02
01
0$
#662500
1!
1.
14
#665000
0!
1"
0.
1/
15
04
16
12
11
1$
#667500
1!
1.
14
#670000
0!
0"
0.
0/
05
04
06
02
01
0$
#672500
1!
1.
14
#675000
0!
1"
0.
1/
15
04
16
12
11
1$
#677500
1!
1.
14
#680000
0!
0"
0.
0/
05
04
06
02
01
0$
#682500
1!
1.
14
#685000
0!
1"
0.
1/
15
04
16
12
11
1$
#687500
1!
1.
14
#690000
0!
0"
0.
0/
05
04
06
02
01
0$
#692500
1!
1.
14
#695000
0!
1"
0.
1/
15
04
16
12
11
1$
#697500
1!
1.
14
#700000
0!
0"
0.
0/
05
04
06
02
01
0$
#702500
1!
1.
14
#705000
0!
1"
0.
1/
15
04
16
12
11
1$
#707500
1!
1.
14
#710000
0!
0"
0.
0/
05
04
06
02
01
0$
#712500
1!
1.
14
#715000
0!
1"
0.
1/
15
04
16
12
11
1$
#717500
1!
1.
14
#720000
0!
0"
0.
0/
05
04
06
02
01
0$
#722500
1!
1.
14
#725000
0!
1"
0.
1/
15
04
16
12
11
1$
#727500
1!
1.
14
#730000
0!
0"
0.
0/
05
04
06
02
01
0$
#732500
1!
1.
14
#735000
0!
1"
0.
1/
15
04
16
12
11
1$
#737500
1!
1.
14
#740000
0!
0"
0.
0/
05
04
06
02
01
0$
#742500
1!
1.
14
#745000
0!
1"
0.
1/
15
04
16
12
11
1$
#747500
1!
1.
14
#750000
0!
0"
0.
0/
05
04
06
02
01
0$
#752500
1!
1.
14
#755000
0!
1"
0.
1/
15
04
16
12
11
1$
#757500
1!
1.
14
#760000
0!
0"
0.
0/
05
04
06
02
01
0$
#762500
1!
1.
14
#765000
0!
1"
0.
1/
15
04
16
12
11
1$
#767500
1!
1.
14
#770000
0!
0"
0.
0/
05
04
06
02
01
0$
#772500
1!
1.
14
#775000
0!
1"
0.
1/
15
04
16
12
11
1$
#777500
1!
1.
14
#780000
0!
0"
0.
0/
05
04
06
02
01
0$
#782500
1!
1.
14
#785000
0!
1"
0.
1/
15
04
16
12
11
1$
#787500
1!
1.
14
#790000
0!
0"
0.
0/
05
04
06
02
01
0$
#792500
1!
1.
14
#795000
0!
1"
0.
1/
15
04
16
12
11
1$
#797500
1!
1.
14
#800000
0!
0"
0.
0/
05
04
06
02
01
0$
#802500
1!
1.
14
#805000
0!
1"
0.
1/
15
04
16
12
11
1$
#807500
1!
1.
14
#810000
0!
0"
0.
0/
05
04
06
02
01
0$
#812500
1!
1.
14
#815000
0!
1"
0.
1/
15
04
16
12
11
1$
#817500
1!
1.
14
#820000
0!
0"
0.
0/
05
04
06
02
01
0$
#822500
1!
1.
14
#825000
0!
1"
0.
1/
15
04
16
12
11
1$
#827500
1!
1.
14
#830000
0!
0"
0.
0/
05
04
06
02
01
0$
#832500
1!
1.
14
#835000
0!
1"
0.
1/
15
04
16
12
11
1$
#837500
1!
1.
14
#840000
0!
0"
0.
0/
05
04
06
02
01
0$
#842500
1!
1.
14
#845000
0!
1"
0.
1/
15
04
16
12
11
1$
#847500
1!
1.
14
#850000
0!
0"
0.
0/
05
04
06
02
01
0$
#852500
1!
1.
14
#855000
0!
1"
0.
1/
15
04
16
12
11
1$
#857500
1!
1.
14
#860000
0!
0"
0.
0/
05
04
06
02
01
0$
#862500
1!
1.
14
#865000
0!
1"
0.
1/
15
04
16
12
11
1$
#867500
1!
1.
14
#870000
0!
0"
0.
0/
05
04
06
02
01
0$
#872500
1!
1.
14
#875000
0!
1"
0.
1/
15
04
16
12
11
1$
#877500
1!
1.
14
#880000
0!
0"
0.
0/
05
04
06
02
01
0$
#882500
1!
1.
14
#885000
0!
1"
0.
1/
15
04
16
12
11
1$
#887500
1!
1.
14
#890000
0!
0"
0.
0/
05
04
06
02
01
0$
#892500
1!
1.
14
#895000
0!
1"
0.
1/
15
04
16
12
11
1$
#897500
1!
1.
14
#900000
0!
0"
0.
0/
05
04
06
02
01
0$
#902500
1!
1.
14
#905000
0!
1"
0.
1/
15
04
16
12
11
1$
#907500
1!
1.
14
#910000
0!
0"
0.
0/
05
04
06
02
01
0$
#912500
1!
1.
14
#915000
0!
1"
0.
1/
15
04
16
12
11
1$
#917500
1!
1.
14
#920000
0!
0"
0.
0/
05
04
06
02
01
0$
#922500
1!
1.
14
#925000
0!
1"
0.
1/
15
04
16
12
11
1$
#927500
1!
1.
14
#930000
0!
0"
0.
0/
05
04
06
02
01
0$
#932500
1!
1.
14
#935000
0!
1"
0.
1/
15
04
16
12
11
1$
#937500
1!
1.
14
#940000
0!
0"
0.
0/
05
04
06
02
01
0$
#942500
1!
1.
14
#945000
0!
1"
0.
1/
15
04
16
12
11
1$
#947500
1!
1.
14
#950000
0!
0"
0.
0/
05
04
06
02
01
0$
#952500
1!
1.
14
#955000
0!
1"
0.
1/
15
04
16
12
11
1$
#957500
1!
1.
14
#960000
0!
0"
0.
0/
05
04
06
02
01
0$
#962500
1!
1.
14
#965000
0!
1"
0.
1/
15
04
16
12
11
1$
#967500
1!
1.
14
#970000
0!
0"
0.
0/
05
04
06
02
01
0$
#972500
1!
1.
14
#975000
0!
1"
0.
1/
15
04
16
12
11
1$
#977500
1!
1.
14
#980000
0!
0"
0.
0/
05
04
06
02
01
0$
#982500
1!
1.
14
#985000
0!
1"
0.
1/
15
04
16
12
11
1$
#987500
1!
1.
14
#990000
0!
0"
0.
0/
05
04
06
02
01
0$
#992500
1!
1.
14
#995000
0!
1"
0.
1/
15
04
16
12
11
1$
#997500
1!
1.
14
