decoder242130/simulation/qsim/decoder242130.msim.vcd
$comment
	File created using the following command:
		vcd file decoder242130.msim.vcd -direction
$end
$date
	Mon Nov 21 11:46:01 2022
$end
$version
	ModelSim Version 10.5b
$end
$timescale
	1ps
$end

$scope module decoder242130_vlg_vec_tst $end
$var reg 1 ! A $end
$var reg 1 " B $end
$var wire 1 # F [3] $end
$var wire 1 $ F [2] $end
$var wire 1 % F [1] $end
$var wire 1 & F [0] $end

$scope module i1 $end
$var wire 1 ' gnd $end
$var wire 1 ( vcc $end
$var wire 1 ) unknown $end
$var tri1 1 * devclrn $end
$var tri1 1 + devpor $end
$var tri1 1 , devoe $end
$var wire 1 - F[3]~output_o $end
$var wire 1 . F[2]~output_o $end
$var wire 1 / F[1]~output_o $end
$var wire 1 0 F[0]~output_o $end
$var wire 1 1 B~input_o $end
$var wire 1 2 A~input_o $end
$var wire 1 3 inst2~0_combout $end
$var wire 1 4 inst2~1_combout $end
$var wire 1 5 inst2~2_combout $end
$var wire 1 6 inst3~combout $end
$upscope $end
$upscope $end
$enddefinitions $end
#0
$dumpvars
0!
0"
1&
0%
0$
0#
0'
1(
x)
1*
1+
1,
0-
0.
0/
10
01
02
03
04
05
06
$end
#20000
1!
12
16
15
1/
00
0&
1%
#40000
1"
0!
11
02
05
14
1.
0/
0%
1$
#60000
1!
12
04
13
1-
0.
0$
1#
#80000
0"
0!
01
02
06
03
0-
10
1&
0#
#100000
1!
12
16
15
1/
00
0&
1%
#120000
1"
0!
11
02
05
14
1.
0/
0%
1$
#140000
1!
12
04
13
1-
0.
0$
1#
#160000
0"
0!
01
02
06
03
0-
10
1&
0#
#180000
1!
12
16
15
1/
00
0&
1%
#200000
1"
0!
11
02
05
14
1.
0/
0%
1$
#220000
1!
12
04
13
1-
0.
0$
1#
#240000
0"
0!
01
02
06
03
0-
10
1&
0#
#260000
1!
12
16
15
1/
00
0&
1%
#280000
1"
0!
11
02
05
14
1.
0/
0%
1$
#300000
1!
12
04
13
1-
0.
0$
1#
#320000
0"
0!
01
02
06
03
0-
10
1&
0#
#340000
1!
12
16
15
1/
00
0&
1%
#360000
1"
0!
11
02
05
14
1.
0/
0%
1$
#380000
1!
12
04
13
1-
0.
0$
1#
#400000
0"
0!
01
02
06
03
0-
10
1&
0#
#420000
1!
12
16
15
1/
00
0&
1%
#440000
1"
0!
11
02
05
14
1.
0/
0%
1$
#460000
1!
12
04
13
1-
0.
0$
1#
#480000
0"
0!
01
02
06
03
0-
10
1&
0#
#500000
1!
12
16
15
1/
00
0&
1%
#520000
1"
0!
11
02
05
14
1.
0/
0%
1$
#540000
1!
12
04
13
1-
0.
0$
1#
#560000
0"
0!
01
02
06
03
0-
10
1&
0#
#580000
1!
12
16
15
1/
00
0&
1%
#600000
1"
0!
11
02
05
14
1.
0/
0%
1$
#620000
1!
12
04
13
1-
0.
0$
1#
#640000
0"
0!
01
02
06
03
0-
10
1&
0#
#660000
1!
12
16
15
1/
00
0&
1%
#680000
1"
0!
11
02
05
14
1.
0/
0%
1$
#700000
1!
12
04
13
1-
0.
0$
1#
#720000
0"
0!
01
02
06
03
0-
10
1&
0#
#740000
1!
12
16
15
1/
00
0&
1%
#760000
1"
0!
11
02
05
14
1.
0/
0%
1$
#780000
1!
12
04
13
1-
0.
0$
1#
#800000
0"
0!
01
02
06
03
0-
10
1&
0#
#820000
1!
12
16
15
1/
00
0&
1%
#840000
1"
0!
11
02
05
14
1.
0/
0%
1$
#860000
1!
12
04
13
1-
0.
0$
1#
#880000
0"
0!
01
02
06
03
0-
10
1&
0#
#900000
1!
12
16
15
1/
00
0&
1%
#920000
1"
0!
11
02
05
14
1.
0/
0%
1$
#940000
1!
12
04
13
1-
0.
0$
1#
#960000
0"
0!
01
02
06
03
0-
10
1&
0#
#980000
1!
12
16
15
1/
00
0&
1%
