Timing2130/simulation/qsim/Timing2130.msim.vcd
$comment
	File created using the following command:
		vcd file Timing2130.msim.vcd -direction
$end
$date
	Mon Nov 21 19:25:14 2022
$end
$version
	ModelSim Version 10.5b
$end
$timescale
	1ps
$end

$scope module Timing2130_vlg_vec_tst $end
$var reg 1 ! CLK1 $end
$var reg 1 " RST1 $end
$var reg 1 # S0 $end
$var wire 1 $ T1 $end
$var wire 1 % T2 $end
$var wire 1 & T3 $end
$var wire 1 ' T4 $end

$scope module i1 $end
$var wire 1 ( gnd $end
$var wire 1 ) vcc $end
$var wire 1 * unknown $end
$var tri1 1 + devclrn $end
$var tri1 1 , devpor $end
$var tri1 1 - devoe $end
$var wire 1 . T1~output_o $end
$var wire 1 / T4~output_o $end
$var wire 1 0 T3~output_o $end
$var wire 1 1 T2~output_o $end
$var wire 1 2 S0~input_o $end
$var wire 1 3 inst7~feeder_combout $end
$var wire 1 4 RST1~input_o $end
$var wire 1 5 RST1~inputclkctrl_outclk $end
$var wire 1 6 inst7~q $end
$var wire 1 7 inst8~feeder_combout $end
$var wire 1 8 inst8~q $end
$var wire 1 9 inst9~feeder_combout $end
$var wire 1 : inst9~q $end
$var wire 1 ; inst10~q $end
$var wire 1 < CLK1~input_o $end
$var wire 1 = inst2~combout $end
$var wire 1 > inst2~clkctrl_outclk $end
$var wire 1 ? inst|5~0_combout $end
$var wire 1 @ inst|5~1_combout $end
$var wire 1 A inst6~q $end
$upscope $end
$upscope $end
$enddefinitions $end
#0
$dumpvars
0!
0"
0#
0$
0%
0&
0'
0(
1)
x*
1+
1,
1-
0.
0/
00
01
02
03
04
05
06
07
08
09
0:
0;
0<
0=
0>
1?
1@
0A
$end
#10000
1!
1<
1=
1>
#20000
0!
0<
0=
0>
#30000
1!
1<
1=
1>
#40000
0!
0<
0=
0>
#50000
1!
1<
1=
1>
#60000
0!
0<
0=
0>
#70000
1!
1<
1=
1>
#80000
1"
1#
0!
14
12
0<
15
0=
0>
#90000
1!
1<
1=
1>
1A
1.
0?
1$
13
0@
#100000
0!
0<
0=
0>
#110000
1!
1<
1=
1>
0A
16
11
0.
1?
0$
1%
03
17
#120000
0!
0<
0=
0>
#130000
1!
1<
1=
1>
18
06
01
10
0?
1&
0%
19
1@
07
0@
#140000
0!
0<
0=
0>
#150000
1!
1<
1=
1>
1:
08
00
1/
1?
1'
0&
09
1@
#160000
0!
0<
0=
0>
#170000
1!
1<
1=
1>
1;
1A
0:
0/
1.
0?
1$
0'
13
0@
#180000
0!
0<
0=
0>
#190000
1!
1<
1=
1>
0;
0A
16
11
0.
1?
0$
1%
03
17
#200000
0!
0<
0=
0>
#210000
1!
1<
1=
1>
18
06
01
10
0?
1&
0%
19
1@
07
0@
#220000
0!
0<
0=
0>
#230000
1!
1<
1=
1>
1:
08
00
1/
1?
1'
0&
09
1@
#240000
0!
0<
0=
0>
#250000
1!
1<
1=
1>
1;
1A
0:
0/
1.
0?
1$
0'
13
0@
#260000
0!
0<
0=
0>
#270000
1!
1<
1=
1>
0;
0A
16
11
0.
1?
0$
1%
03
17
#280000
0!
0<
0=
0>
#290000
1!
1<
1=
1>
18
06
01
10
0?
1&
0%
19
1@
07
0@
#300000
0!
0<
0=
0>
#310000
1!
1<
1=
1>
1:
08
00
1/
1?
1'
0&
09
1@
#320000
0!
0<
0=
0>
#330000
1!
1<
1=
1>
1;
1A
0:
0/
1.
0?
1$
0'
13
0@
#340000
0!
0<
0=
0>
#350000
1!
1<
1=
1>
0;
0A
16
11
0.
1?
0$
1%
03
17
#360000
0!
0<
0=
0>
#370000
1!
1<
1=
1>
18
06
01
10
0?
1&
0%
19
1@
07
0@
#380000
0!
0<
0=
0>
#390000
1!
1<
1=
1>
1:
08
00
1/
1?
1'
0&
09
1@
#400000
0#
0!
02
0<
0?
0=
0>
0@
#410000
1!
1<
1=
1>
1;
0:
0/
1?
0'
1@
#420000
0!
0<
#430000
1!
1<
#440000
0"
0!
04
0<
05
0;
0=
0>
#450000
1!
1<
1=
1>
#460000
0!
0<
0=
0>
#470000
1!
1<
1=
1>
#480000
0!
0<
0=
0>
#490000
1!
1<
1=
1>
#500000
0!
0<
0=
0>
#510000
1!
1<
1=
1>
#520000
0!
0<
0=
0>
#530000
1!
1<
1=
1>
#540000
1"
0!
14
0<
15
0=
0>
#550000
1!
1<
1=
1>
1A
1.
0?
1$
13
0@
#560000
0!
0<
0=
0>
#570000
1!
1<
1=
1>
0A
16
11
0.
1?
0$
1%
03
17
#580000
0!
0<
0=
0>
#590000
1!
1<
1=
1>
18
06
01
10
0?
1&
0%
19
1@
07
0@
#600000
0!
0<
0=
0>
#610000
1!
1<
1=
1>
1:
08
00
1/
1'
0&
09
#620000
0!
0<
0=
0>
#630000
1!
1<
1=
1>
1;
0:
0/
1?
0'
1@
#640000
0"
0!
04
0<
05
0;
0=
0>
#650000
1!
1<
1=
1>
#660000
0!
0<
0=
0>
#670000
1!
1<
1=
1>
#680000
0!
0<
0=
0>
#690000
1!
1<
1=
1>
#700000
0!
0<
0=
0>
#710000
1!
1<
1=
1>
#720000
0!
0<
0=
0>
#730000
1!
1<
1=
1>
#740000
1"
0!
14
0<
15
0=
0>
#750000
1!
1<
1=
1>
1A
1.
0?
1$
13
0@
#760000
0!
0<
0=
0>
#770000
1!
1<
1=
1>
0A
16
11
0.
1?
0$
1%
03
17
#780000
0!
0<
0=
0>
#790000
1!
1<
1=
1>
18
06
01
10
0?
1&
0%
19
1@
07
0@
#800000
0!
0<
0=
0>
#810000
1!
1<
1=
1>
1:
08
00
1/
1'
0&
09
#820000
0!
0<
0=
0>
#830000
1!
1<
1=
1>
1;
0:
0/
1?
0'
1@
#840000
0"
0!
04
0<
05
0;
0=
0>
#850000
1!
1<
1=
1>
#860000
0!
0<
0=
0>
#870000
1!
1<
1=
1>
#880000
0!
0<
0=
0>
#890000
1!
1<
1=
1>
#900000
0!
0<
0=
0>
#910000
1!
1<
1=
1>
#920000
0!
0<
0=
0>
#930000
1!
1<
1=
1>
#940000
1"
0!
14
0<
15
0=
0>
#950000
1!
1<
1=
1>
1A
1.
0?
1$
13
0@
#960000
0!
0<
0=
0>
#970000
1!
1<
1=
1>
0A
16
11
0.
1?
0$
1%
03
17
#980000
0!
0<
0=
0>
#990000
1!
1<
1=
1>
18
06
01
10
0?
1&
0%
19
1@
07
0@
