uControl2130/simulation/qsim/uControl2130.msim.vcd
$comment
	File created using the following command:
		vcd file uControl2130.msim.vcd -direction
$end
$date
	Mon Nov 21 19:54:59 2022
$end
$version
	ModelSim Version 10.5b
$end
$timescale
	1ps
$end

$scope module uControl2130_vlg_vec_tst $end
$var reg 1 ! CLK1 $end
$var reg 1 " FC $end
$var reg 1 # FZ $end
$var reg 6 $ I [5:0] $end
$var reg 1 % RST1 $end
$var reg 1 & RST2 $end
$var reg 1 ' S0 $end
$var reg 1 ( SWA $end
$var reg 1 ) SWB $end
$var wire 1 * ALU_B $end
$var wire 1 + LDAR $end
$var wire 1 , LDDR1 $end
$var wire 1 - LDDR2 $end
$var wire 1 . LDIR $end
$var wire 1 / LDPC $end
$var wire 1 0 LDR1 $end
$var wire 1 1 LED_B $end
$var wire 1 2 LOAD $end
$var wire 1 3 M [23] $end
$var wire 1 4 M [22] $end
$var wire 1 5 M [21] $end
$var wire 1 6 M [20] $end
$var wire 1 7 M [19] $end
$var wire 1 8 M [18] $end
$var wire 1 9 M [17] $end
$var wire 1 : M [16] $end
$var wire 1 ; M [15] $end
$var wire 1 < M [14] $end
$var wire 1 = M [13] $end
$var wire 1 > M [12] $end
$var wire 1 ? M [11] $end
$var wire 1 @ M [10] $end
$var wire 1 A M [9] $end
$var wire 1 B M [8] $end
$var wire 1 C M [7] $end
$var wire 1 D M [6] $end
$var wire 1 E M [5] $end
$var wire 1 F M [4] $end
$var wire 1 G M [3] $end
$var wire 1 H M [2] $end
$var wire 1 I M [1] $end
$var wire 1 J M [0] $end
$var wire 1 K P [3] $end
$var wire 1 L P [2] $end
$var wire 1 M P [1] $end
$var wire 1 N P [0] $end
$var wire 1 O PC_B $end
$var wire 1 P R0_B $end
$var wire 1 Q R1_B $end
$var wire 1 R R2_B $end
$var wire 1 S RAM_B $end
$var wire 1 T SW_B $end
$var wire 1 U uaddr [5] $end
$var wire 1 V uaddr [4] $end
$var wire 1 W uaddr [3] $end
$var wire 1 X uaddr [2] $end
$var wire 1 Y uaddr [1] $end
$var wire 1 Z uaddr [0] $end

$scope module i1 $end
$var wire 1 [ gnd $end
$var wire 1 \ vcc $end
$var wire 1 ] unknown $end
$var tri1 1 ^ devclrn $end
$var tri1 1 _ devpor $end
$var tri1 1 ` devoe $end
$var wire 1 a LED_B~output_o $end
$var wire 1 b M[23]~output_o $end
$var wire 1 c M[22]~output_o $end
$var wire 1 d M[21]~output_o $end
$var wire 1 e M[20]~output_o $end
$var wire 1 f M[19]~output_o $end
$var wire 1 g M[18]~output_o $end
$var wire 1 h M[17]~output_o $end
$var wire 1 i M[16]~output_o $end
$var wire 1 j M[15]~output_o $end
$var wire 1 k M[14]~output_o $end
$var wire 1 l M[13]~output_o $end
$var wire 1 m M[12]~output_o $end
$var wire 1 n M[11]~output_o $end
$var wire 1 o M[10]~output_o $end
$var wire 1 p M[9]~output_o $end
$var wire 1 q M[8]~output_o $end
$var wire 1 r M[7]~output_o $end
$var wire 1 s M[6]~output_o $end
$var wire 1 t M[5]~output_o $end
$var wire 1 u M[4]~output_o $end
$var wire 1 v M[3]~output_o $end
$var wire 1 w M[2]~output_o $end
$var wire 1 x M[1]~output_o $end
$var wire 1 y M[0]~output_o $end
$var wire 1 z P[3]~output_o $end
$var wire 1 { P[2]~output_o $end
$var wire 1 | P[1]~output_o $end
$var wire 1 } P[0]~output_o $end
$var wire 1 ~ RAM_B~output_o $end
$var wire 1 !! SW_B~output_o $end
$var wire 1 "! R0_B~output_o $end
$var wire 1 #! R1_B~output_o $end
$var wire 1 $! R2_B~output_o $end
$var wire 1 %! ALU_B~output_o $end
$var wire 1 &! PC_B~output_o $end
$var wire 1 '! LDR1~output_o $end
$var wire 1 (! LDDR1~output_o $end
$var wire 1 )! LDDR2~output_o $end
$var wire 1 *! LDIR~output_o $end
$var wire 1 +! LOAD~output_o $end
$var wire 1 ,! LDAR~output_o $end
$var wire 1 -! LDPC~output_o $end
$var wire 1 .! uaddr[5]~output_o $end
$var wire 1 /! uaddr[4]~output_o $end
$var wire 1 0! uaddr[3]~output_o $end
$var wire 1 1! uaddr[2]~output_o $end
$var wire 1 2! uaddr[1]~output_o $end
$var wire 1 3! uaddr[0]~output_o $end
$var wire 1 4! inst5|inst1~feeder_combout $end
$var wire 1 5! RST1~input_o $end
$var wire 1 6! RST1~inputclkctrl_outclk $end
$var wire 1 7! inst5|inst1~q $end
$var wire 1 8! inst5|inst2~q $end
$var wire 1 9! inst5|inst3~q $end
$var wire 1 :! inst5|inst4~q $end
$var wire 1 ;! S0~input_o $end
$var wire 1 <! CLK1~input_o $end
$var wire 1 =! inst5|inst13~combout $end
$var wire 1 >! inst5|inst13~clkctrl_outclk $end
$var wire 1 ?! inst5|inst9|5~0_combout $end
$var wire 1 @! inst5|inst9|5~1_combout $end
$var wire 1 A! inst5|inst~q $end
$var wire 1 B! inst5|inst~clkctrl_outclk $end
$var wire 1 C! inst5|inst1~clkctrl_outclk $end
$var wire 1 D! SWA~input_o $end
$var wire 1 E! RST2~input_o $end
$var wire 1 F! SWB~input_o $end
$var wire 1 G! FC~input_o $end
$var wire 1 H! FZ~input_o $end
$var wire 1 I! inst4|inst~1_combout $end
$var wire 1 J! inst|inst~0_combout $end
$var wire 1 K! inst1|inst44~1_combout $end
$var wire 1 L! inst1|inst45~feeder_combout $end
$var wire 1 M! inst1|inst45~q $end
$var wire 1 N! inst1|inst44~3_combout $end
$var wire 1 O! inst1|inst44~0_combout $end
$var wire 1 P! inst1|inst44~_emulated_q $end
$var wire 1 Q! inst1|inst44~2_combout $end
$var wire 1 R! inst|inst24~0_combout $end
$var wire 1 S! I[5]~input_o $end
$var wire 1 T! inst|inst24~combout $end
$var wire 1 U! inst1|inst43~1_combout $end
$var wire 1 V! inst1|inst43~3_combout $end
$var wire 1 W! inst1|inst43~0_combout $end
$var wire 1 X! inst1|inst43~_emulated_q $end
$var wire 1 Y! inst1|inst43~2_combout $end
$var wire 1 Z! I[4]~input_o $end
$var wire 1 [! inst|inst25~combout $end
$var wire 1 \! inst1|inst42~1_combout $end
$var wire 1 ]! inst1|inst42~3_combout $end
$var wire 1 ^! inst1|inst42~0_combout $end
$var wire 1 _! inst1|inst42~_emulated_q $end
$var wire 1 `! inst1|inst42~2_combout $end
$var wire 1 a! I[1]~input_o $end
$var wire 1 b! I[3]~input_o $end
$var wire 1 c! inst|inst9~0_combout $end
$var wire 1 d! inst|inst9~1_combout $end
$var wire 1 e! inst|inst9~combout $end
$var wire 1 f! inst1|inst41~1_combout $end
$var wire 1 g! inst1|inst41~3_combout $end
$var wire 1 h! inst1|inst41~0_combout $end
$var wire 1 i! inst1|inst41~_emulated_q $end
$var wire 1 j! inst1|inst41~2_combout $end
$var wire 1 k! inst4|inst~0_combout $end
$var wire 1 l! I[0]~input_o $end
$var wire 1 m! I[2]~input_o $end
$var wire 1 n! inst|inst10~0_combout $end
$var wire 1 o! inst|inst10~1_combout $end
$var wire 1 p! inst|inst10~combout $end
$var wire 1 q! inst1|inst40~1_combout $end
$var wire 1 r! inst1|inst40~3_combout $end
$var wire 1 s! inst1|inst40~0_combout $end
$var wire 1 t! inst1|inst40~_emulated_q $end
$var wire 1 u! inst1|inst40~2_combout $end
$var wire 1 v! inst6|inst6~combout $end
$var wire 1 w! inst4|inst~2_combout $end
$var wire 1 x! inst4|inst~3_combout $end
$var wire 1 y! inst6|inst7~combout $end
$var wire 1 z! inst6|inst8~combout $end
$var wire 1 {! inst3|inst~0_combout $end
$var wire 1 |! inst3|inst~1_combout $end
$var wire 1 }! inst3|inst~2_combout $end
$var wire 1 ~! inst3|inst~3_combout $end
$var wire 1 !" inst3|inst~4_combout $end
$var wire 1 "" inst2|inst~0_combout $end
$var wire 1 #" inst2|inst~1_combout $end
$var wire 1 $" inst2|inst~2_combout $end
$var wire 1 %" inst2|inst~3_combout $end
$var wire 1 &" inst2|inst~4_combout $end
$var wire 1 '" inst2|inst~5_combout $end
$var wire 1 (" inst4|inst~4_combout $end
$var wire 1 )" inst7|inst|srom|rom_block|auto_generated|q_a [23] $end
$var wire 1 *" inst7|inst|srom|rom_block|auto_generated|q_a [22] $end
$var wire 1 +" inst7|inst|srom|rom_block|auto_generated|q_a [21] $end
$var wire 1 ," inst7|inst|srom|rom_block|auto_generated|q_a [20] $end
$var wire 1 -" inst7|inst|srom|rom_block|auto_generated|q_a [19] $end
$var wire 1 ." inst7|inst|srom|rom_block|auto_generated|q_a [18] $end
$var wire 1 /" inst7|inst|srom|rom_block|auto_generated|q_a [17] $end
$var wire 1 0" inst7|inst|srom|rom_block|auto_generated|q_a [16] $end
$var wire 1 1" inst7|inst|srom|rom_block|auto_generated|q_a [15] $end
$var wire 1 2" inst7|inst|srom|rom_block|auto_generated|q_a [14] $end
$var wire 1 3" inst7|inst|srom|rom_block|auto_generated|q_a [13] $end
$var wire 1 4" inst7|inst|srom|rom_block|auto_generated|q_a [12] $end
$var wire 1 5" inst7|inst|srom|rom_block|auto_generated|q_a [11] $end
$var wire 1 6" inst7|inst|srom|rom_block|auto_generated|q_a [10] $end
$var wire 1 7" inst7|inst|srom|rom_block|auto_generated|q_a [9] $end
$var wire 1 8" inst7|inst|srom|rom_block|auto_generated|q_a [8] $end
$var wire 1 9" inst7|inst|srom|rom_block|auto_generated|q_a [7] $end
$var wire 1 :" inst7|inst|srom|rom_block|auto_generated|q_a [6] $end
$var wire 1 ;" inst7|inst|srom|rom_block|auto_generated|q_a [5] $end
$var wire 1 <" inst7|inst|srom|rom_block|auto_generated|q_a [4] $end
$var wire 1 =" inst7|inst|srom|rom_block|auto_generated|q_a [3] $end
$var wire 1 >" inst7|inst|srom|rom_block|auto_generated|q_a [2] $end
$var wire 1 ?" inst7|inst|srom|rom_block|auto_generated|q_a [1] $end
$var wire 1 @" inst7|inst|srom|rom_block|auto_generated|q_a [0] $end
$var wire 1 A" inst7|inst|srom|rom_block|auto_generated|ram_block1a0_PORTADATAOUT_bus [35] $end
$var wire 1 B" inst7|inst|srom|rom_block|auto_generated|ram_block1a0_PORTADATAOUT_bus [34] $end
$var wire 1 C" inst7|inst|srom|rom_block|auto_generated|ram_block1a0_PORTADATAOUT_bus [33] $end
$var wire 1 D" inst7|inst|srom|rom_block|auto_generated|ram_block1a0_PORTADATAOUT_bus [32] $end
$var wire 1 E" inst7|inst|srom|rom_block|auto_generated|ram_block1a0_PORTADATAOUT_bus [31] $end
$var wire 1 F" inst7|inst|srom|rom_block|auto_generated|ram_block1a0_PORTADATAOUT_bus [30] $end
$var wire 1 G" inst7|inst|srom|rom_block|auto_generated|ram_block1a0_PORTADATAOUT_bus [29] $end
$var wire 1 H" inst7|inst|srom|rom_block|auto_generated|ram_block1a0_PORTADATAOUT_bus [28] $end
$var wire 1 I" inst7|inst|srom|rom_block|auto_generated|ram_block1a0_PORTADATAOUT_bus [27] $end
$var wire 1 J" inst7|inst|srom|rom_block|auto_generated|ram_block1a0_PORTADATAOUT_bus [26] $end
$var wire 1 K" inst7|inst|srom|rom_block|auto_generated|ram_block1a0_PORTADATAOUT_bus [25] $end
$var wire 1 L" inst7|inst|srom|rom_block|auto_generated|ram_block1a0_PORTADATAOUT_bus [24] $end
$var wire 1 M" inst7|inst|srom|rom_block|auto_generated|ram_block1a0_PORTADATAOUT_bus [23] $end
$var wire 1 N" inst7|inst|srom|rom_block|auto_generated|ram_block1a0_PORTADATAOUT_bus [22] $end
$var wire 1 O" inst7|inst|srom|rom_block|auto_generated|ram_block1a0_PORTADATAOUT_bus [21] $end
$var wire 1 P" inst7|inst|srom|rom_block|auto_generated|ram_block1a0_PORTADATAOUT_bus [20] $end
$var wire 1 Q" inst7|inst|srom|rom_block|auto_generated|ram_block1a0_PORTADATAOUT_bus [19] $end
$var wire 1 R" inst7|inst|srom|rom_block|auto_generated|ram_block1a0_PORTADATAOUT_bus [18] $end
$var wire 1 S" inst7|inst|srom|rom_block|auto_generated|ram_block1a0_PORTADATAOUT_bus [17] $end
$var wire 1 T" inst7|inst|srom|rom_block|auto_generated|ram_block1a0_PORTADATAOUT_bus [16] $end
$var wire 1 U" inst7|inst|srom|rom_block|auto_generated|ram_block1a0_PORTADATAOUT_bus [15] $end
$var wire 1 V" inst7|inst|srom|rom_block|auto_generated|ram_block1a0_PORTADATAOUT_bus [14] $end
$var wire 1 W" inst7|inst|srom|rom_block|auto_generated|ram_block1a0_PORTADATAOUT_bus [13] $end
$var wire 1 X" inst7|inst|srom|rom_block|auto_generated|ram_block1a0_PORTADATAOUT_bus [12] $end
$var wire 1 Y" inst7|inst|srom|rom_block|auto_generated|ram_block1a0_PORTADATAOUT_bus [11] $end
$var wire 1 Z" inst7|inst|srom|rom_block|auto_generated|ram_block1a0_PORTADATAOUT_bus [10] $end
$var wire 1 [" inst7|inst|srom|rom_block|auto_generated|ram_block1a0_PORTADATAOUT_bus [9] $end
$var wire 1 \" inst7|inst|srom|rom_block|auto_generated|ram_block1a0_PORTADATAOUT_bus [8] $end
$var wire 1 ]" inst7|inst|srom|rom_block|auto_generated|ram_block1a0_PORTADATAOUT_bus [7] $end
$var wire 1 ^" inst7|inst|srom|rom_block|auto_generated|ram_block1a0_PORTADATAOUT_bus [6] $end
$var wire 1 _" inst7|inst|srom|rom_block|auto_generated|ram_block1a0_PORTADATAOUT_bus [5] $end
$var wire 1 `" inst7|inst|srom|rom_block|auto_generated|ram_block1a0_PORTADATAOUT_bus [4] $end
$var wire 1 a" inst7|inst|srom|rom_block|auto_generated|ram_block1a0_PORTADATAOUT_bus [3] $end
$var wire 1 b" inst7|inst|srom|rom_block|auto_generated|ram_block1a0_PORTADATAOUT_bus [2] $end
$var wire 1 c" inst7|inst|srom|rom_block|auto_generated|ram_block1a0_PORTADATAOUT_bus [1] $end
$var wire 1 d" inst7|inst|srom|rom_block|auto_generated|ram_block1a0_PORTADATAOUT_bus [0] $end
$upscope $end
$upscope $end
$enddefinitions $end
#0
$dumpvars
0!
0"
0#
b0 $
0%
1&
1'
1(
0)
1*
0+
0,
0-
0.
0/
00
11
02
0J
0I
0H
0G
0F
0E
0D
0C
0B
0A
0@
0?
0>
0=
0<
0;
0:
09
08
07
06
05
04
03
0N
0M
0L
0K
1O
1P
1Q
1R
1S
0T
0Z
0Y
0X
0W
0V
0U
0[
1\
x]
1^
1_
1`
1a
0b
0c
0d
0e
0f
0g
0h
0i
0j
0k
0l
0m
0n
0o
0p
0q
0r
0s
0t
0u
0v
0w
0x
0y
0z
0{
0|
0}
1~
0!!
1"!
1#!
1$!
1%!
1&!
0'!
0(!
0)!
0*!
0+!
0,!
0-!
0.!
0/!
00!
01!
02!
03!
04!
05!
06!
07!
08!
09!
0:!
1;!
0<!
0=!
0>!
1?!
1@!
0A!
0B!
0C!
1D!
1E!
0F!
0G!
0H!
0I!
0J!
0K!
0L!
0M!
0N!
1O!
0P!
0Q!
0R!
0S!
0T!
0U!
0V!
1W!
0X!
0Y!
0Z!
0[!
0\!
0]!
1^!
0_!
0`!
0a!
0b!
0c!
0d!
0e!
0f!
0g!
1h!
0i!
0j!
0k!
0l!
0m!
0n!
0o!
0p!
0q!
0r!
1s!
0t!
0u!
0v!
0w!
0x!
0y!
0z!
0{!
0|!
0}!
0~!
0!"
0""
0#"
0$"
0%"
0&"
0'"
0("
0@"
0?"
0>"
0="
0<"
0;"
0:"
09"
08"
07"
06"
05"
04"
03"
02"
01"
00"
0/"
0."
0-"
0,"
0+"
0*"
0)"
0d"
0c"
0b"
0a"
0`"
0_"
0^"
0]"
0\"
0["
0Z"
0Y"
0X"
0W"
0V"
0U"
0T"
0S"
0R"
0Q"
0P"
0O"
0N"
0M"
0L"
0K"
0J"
0I"
0H"
0G"
0F"
0E"
0D"
0C"
0B"
0A"
$end
#5000
1!
1<!
1=!
1>!
#10000
0!
0<!
0=!
0>!
#15000
1!
1<!
1=!
1>!
#20000
0&
0!
0E!
0<!
0s!
0h!
0^!
0W!
0O!
0=!
0>!
#25000
1!
1<!
1=!
1>!
#30000
0!
0<!
0=!
0>!
#35000
1!
1<!
1=!
1>!
#40000
1%
0!
15!
0<!
16!
0=!
0>!
#45000
1!
1<!
1=!
1>!
1A!
1B!
0@!
14!
#45001
1`"
1\"
1U"
1T"
1<"
18"
11"
10"
1i
1j
1q
1u
1F
1B
1;
1:
1N!
1k!
1z!
1!!
1z
1K
1T
#50000
0!
0<!
0=!
0>!
#55000
1!
1<!
1=!
1>!
0A!
17!
0B!
1C!
1@!
0?!
04!
0@!
1P!
1Q!
1/!
1V
#60000
0!
0<!
0=!
0>!
#65000
1!
1<!
1=!
1>!
18!
07!
0C!
#70000
0!
0<!
0=!
0>!
#75000
1!
1<!
1=!
1>!
19!
08!
1p!
1?!
1s!
1q!
1@!
1u!
13!
1Z
1r!
#80000
0!
0<!
0=!
0>!
#85000
1!
1<!
1=!
1>!
1A!
1:!
09!
1B!
0@!
0p!
14!
0s!
#85001
1b"
1]"
1Z"
1Y"
1W"
1V"
1>"
19"
16"
15"
13"
12"
1k
1l
1n
1o
1r
1w
1!"
1H
1C
1@
1?
1=
1<
1]!
1("
0k!
1'"
1,!
0z
1-!
0&!
0O
1/
0K
1+
#90000
0!
0<!
0=!
0>!
#95000
1!
1<!
1=!
1>!
0A!
0:!
17!
0B!
1C!
1@!
0?!
04!
0@!
1t!
1_!
0u!
1`!
11!
03!
0Z
1X
#100000
0!
0<!
0=!
0>!
#105000
1!
1<!
1=!
1>!
18!
07!
0C!
#110000
0!
0<!
0=!
0>!
#115000
1!
1<!
1=!
1>!
19!
08!
1?!
1@!
#120000
0!
0<!
0=!
0>!
#125000
1!
1<!
1=!
1>!
1A!
1:!
09!
1B!
0@!
14!
#125001
0b"
1a"
0]"
0\"
0Z"
0Y"
0V"
0U"
0T"
0>"
1="
09"
08"
06"
05"
02"
01"
00"
0i
0j
0k
0n
0o
0q
0r
1v
0w
0!"
0H
1G
0C
0B
0@
0?
0<
0;
0:
0]!
1V!
0("
0'"
1#"
0z!
0!!
1(!
0,!
0-!
1&!
1O
0/
0+
1,
0T
#130000
0!
0<!
0=!
0>!
#135000
1!
1<!
1=!
1>!
0A!
0:!
17!
0B!
1C!
1@!
0?!
04!
0@!
0_!
1X!
0`!
1Y!
10!
01!
0X
1W
#140000
0!
0<!
0=!
0>!
#145000
1!
1<!
1=!
1>!
18!
07!
0C!
#150000
0!
0<!
0=!
0>!
#155000
1!
1<!
1=!
1>!
19!
08!
1?!
1@!
#160000
0!
0<!
0=!
0>!
#165000
1!
1<!
1=!
1>!
1A!
1:!
09!
1B!
0@!
14!
#165001
1d"
0a"
1["
1Y"
0W"
1U"
1S"
1R"
1@"
0="
17"
15"
03"
11"
1/"
1."
1g
1h
1j
0l
1n
1p
0v
1y
1~!
1y!
1J
0G
1A
1?
0=
1;
19
18
0r!
0V!
0#"
1z!
1!!
0(!
0~
0%!
0*
0S
0,
1T
#170000
0!
0<!
0=!
0>!
#175000
1!
1<!
1=!
1>!
0A!
0:!
17!
0B!
1C!
1@!
0?!
04!
0@!
0t!
0X!
1u!
0Y!
00!
13!
1Z
0W
#180000
0!
0<!
0=!
0>!
#185000
1!
1<!
1=!
1>!
18!
07!
0C!
#190000
0!
0<!
0=!
0>!
#195000
1!
1<!
1=!
1>!
19!
08!
1?!
1@!
#200000
0!
0<!
0=!
0>!
#205000
1!
1<!
1=!
1>!
1A!
1:!
09!
1B!
0@!
14!
#205001
0d"
1b"
1]"
1\"
0["
1Z"
1W"
1V"
1T"
0S"
0R"
0@"
1>"
19"
18"
07"
16"
13"
12"
10"
0/"
0."
0g
0h
1i
1k
1l
1o
0p
1q
1r
1w
0y
1!"
0~!
0y!
0J
1H
1C
1B
0A
1@
1=
1<
1:
09
08
1r!
1]!
1("
1'"
1,!
1-!
1~
1%!
0&!
0O
1*
1S
1/
1+
#210000
0!
0<!
0=!
0>!
#215000
1!
1<!
1=!
1>!
0A!
0:!
17!
0B!
1C!
1@!
0?!
04!
0@!
1t!
1_!
0u!
1`!
11!
03!
0Z
1X
#220000
0!
0<!
0=!
0>!
#225000
1!
1<!
1=!
1>!
18!
07!
0C!
#230000
0!
0<!
0=!
0>!
#235000
1!
1<!
1=!
1>!
19!
08!
1?!
1@!
#240000
0!
0<!
0=!
0>!
#245000
1!
1<!
1=!
1>!
1A!
1:!
09!
1B!
0@!
14!
#245001
0b"
1a"
0]"
0\"
0Z"
0Y"
0V"
0U"
0T"
0>"
1="
09"
08"
06"
05"
02"
01"
00"
0i
0j
0k
0n
0o
0q
0r
1v
0w
0!"
0H
1G
0C
0B
0@
0?
0<
0;
0:
0]!
1V!
0("
0'"
1#"
0z!
0!!
1(!
0,!
0-!
1&!
1O
0/
0+
1,
0T
#250000
0!
0<!
0=!
0>!
#255000
1!
1<!
1=!
1>!
0A!
0:!
17!
0B!
1C!
1@!
0?!
04!
0@!
0_!
1X!
0`!
1Y!
10!
01!
0X
1W
#260000
0!
0<!
0=!
0>!
#265000
1!
1<!
1=!
1>!
18!
07!
0C!
#270000
0(
1&
0!
0D!
1E!
0<!
1s!
0q!
1h!
1^!
1W!
1O!
0=!
0>!
0Y!
0Q!
0/!
00!
0W
0V
0r!
0t!
0X!
0P!
#275000
1!
1<!
1=!
1>!
19!
08!
1?!
1@!
#280000
0!
0<!
0=!
0>!
#285000
1!
1<!
1=!
1>!
1A!
1:!
09!
1B!
0@!
14!
#285001
0a"
1\"
0W"
1U"
1T"
0="
18"
03"
11"
10"
1i
1j
0l
1q
0v
0G
1B
0=
1;
1:
0V!
1k!
0#"
1z!
1!!
0(!
1z
1K
0,
1T
#290000
0&
0!
0E!
0<!
0s!
0h!
0^!
0W!
0O!
0=!
0>!
#295000
1!
1<!
1=!
1>!
0A!
0:!
17!
0B!
1C!
1@!
0?!
04!
0@!
1P!
1Q!
1/!
1V
#300000
0!
0<!
0=!
0>!
#305000
1!
1<!
1=!
1>!
18!
07!
0C!
#310000
0!
0<!
0=!
0>!
#315000
1!
1<!
1=!
1>!
19!
08!
1?!
1@!
#320000
0!
0<!
0=!
0>!
#325000
1!
1<!
1=!
1>!
1A!
1:!
09!
1B!
0@!
14!
#325001
1c"
1]"
1Z"
1Y"
1W"
1V"
1?"
19"
16"
15"
13"
12"
1k
1l
1n
1o
1r
1x
1g!
1!"
1I
1C
1@
1?
1=
1<
1("
0k!
1'"
1,!
0z
1-!
0&!
0O
1/
0K
1+
#330000
0!
0<!
0=!
0>!
#335000
1!
1<!
1=!
1>!
0A!
0:!
17!
0B!
1C!
1@!
0?!
04!
0@!
1i!
1j!
12!
1Y
#340000
0!
0<!
0=!
0>!
#345000
1!
1<!
1=!
1>!
18!
07!
0C!
#350000
0!
0<!
0=!
0>!
#355000
1!
1<!
1=!
1>!
19!
08!
1?!
1@!
#360000
0!
0<!
0=!
0>!
#365000
1!
1<!
1=!
1>!
1A!
1:!
09!
1B!
0@!
14!
#365001
1d"
1b"
0]"
0\"
0Z"
0Y"
0V"
0T"
1@"
1>"
09"
08"
06"
05"
02"
00"
0i
0k
0n
0o
0q
0r
1w
1y
0!"
1y!
1J
1H
0C
0B
0@
0?
0<
0:
1r!
1]!
0("
0'"
1#"
1(!
0,!
0-!
0~
1&!
1O
0S
0/
0+
1,
#370000
0!
0<!
0=!
0>!
#375000
1!
1<!
1=!
1>!
0A!
0:!
17!
0B!
1C!
1@!
0?!
04!
0@!
1t!
1_!
1u!
1`!
11!
13!
1Z
1X
#380000
0!
0<!
0=!
0>!
#385000
1!
1<!
1=!
1>!
18!
07!
0C!
#390000
0!
0<!
0=!
0>!
#395000
1!
1<!
1=!
1>!
19!
08!
1?!
1@!
#400000
0!
0<!
0=!
0>!
#405000
1!
1<!
1=!
1>!
1A!
1:!
09!
1B!
0@!
14!
#405001
0d"
0c"
0b"
1["
1Y"
0W"
0U"
1T"
1R"
0@"
0?"
0>"
17"
15"
03"
01"
10"
1."
1g
1i
0j
0l
1n
1p
0w
0x
0y
0g!
1~!
0y!
1v!
0J
0I
0H
1A
1?
0=
0;
1:
18
0r!
0]!
0#"
0(!
0a
1~
0%!
0*
1S
01
0,
#410000
0!
0<!
0=!
0>!
#415000
1!
1<!
1=!
1>!
0A!
0:!
17!
0B!
1C!
1@!
0?!
04!
0@!
0t!
0i!
0_!
0u!
0j!
0`!
01!
02!
03!
0Z
0Y
0X
#420000
0!
0<!
0=!
0>!
#425000
1!
1<!
1=!
1>!
18!
07!
0C!
#430000
0!
0<!
0=!
0>!
#435000
1!
1<!
1=!
1>!
19!
08!
1?!
1@!
#440000
0!
0<!
0=!
0>!
#445000
1!
1<!
1=!
1>!
1A!
1:!
09!
1B!
0@!
14!
#445001
1c"
1]"
1\"
0["
1Z"
1W"
1V"
1U"
0R"
1?"
19"
18"
07"
16"
13"
12"
11"
0."
0g
1j
1k
1l
1o
0p
1q
1r
1x
1g!
1!"
0~!
0v!
1I
1C
1B
0A
1@
1=
1<
1;
08
1("
1'"
1,!
1-!
1a
1%!
0&!
0O
1*
11
1/
1+
#450000
0!
0<!
0=!
0>!
#455000
1!
1<!
1=!
1>!
0A!
0:!
17!
0B!
1C!
1@!
0?!
04!
0@!
1i!
1j!
12!
1Y
#460000
0!
0<!
0=!
0>!
#465000
1!
1<!
1=!
1>!
18!
07!
0C!
#470000
0!
0<!
0=!
0>!
#475000
1!
1<!
1=!
1>!
19!
08!
1?!
1@!
#480000
0!
0<!
0=!
0>!
#485000
1!
1<!
1=!
1>!
1A!
1:!
09!
1B!
0@!
14!
#485001
1d"
1b"
0]"
0\"
0Z"
0Y"
0V"
0T"
1@"
1>"
09"
08"
06"
05"
02"
00"
0i
0k
0n
0o
0q
0r
1w
1y
0!"
1y!
1J
1H
0C
0B
0@
0?
0<
0:
1r!
1]!
0("
0'"
1#"
1(!
0,!
0-!
0~
1&!
1O
0S
0/
0+
1,
#490000
0!
0<!
0=!
0>!
#495000
1!
1<!
1=!
1>!
0A!
0:!
17!
0B!
1C!
1@!
0?!
04!
0@!
1t!
1_!
1u!
1`!
11!
13!
1Z
1X
#500000
0!
0<!
0=!
0>!
#505000
1!
1<!
1=!
1>!
18!
07!
0C!
#510000
0!
0<!
0=!
0>!
#515000
1!
1<!
1=!
1>!
19!
08!
1?!
1@!
#520000
0!
0<!
0=!
0>!
#525000
1!
1<!
1=!
1>!
1A!
1:!
09!
1B!
0@!
14!
#525001
0d"
0c"
0b"
1["
1Y"
0W"
0U"
1T"
1R"
0@"
0?"
0>"
17"
15"
03"
01"
10"
1."
1g
1i
0j
0l
1n
1p
0w
0x
0y
0g!
1~!
0y!
1v!
0J
0I
0H
1A
1?
0=
0;
1:
18
0r!
0]!
0#"
0(!
0a
1~
0%!
0*
1S
01
0,
#530000
0!
0<!
0=!
0>!
#535000
1!
1<!
1=!
1>!
0A!
0:!
17!
0B!
1C!
1@!
0?!
04!
0@!
0t!
0i!
0_!
0u!
0j!
0`!
01!
02!
03!
0Z
0Y
0X
#540000
0!
0<!
0=!
0>!
#545000
1!
1<!
1=!
1>!
18!
07!
0C!
#550000
0!
0<!
0=!
0>!
#555000
1!
1<!
1=!
1>!
19!
08!
1?!
1@!
#560000
0!
0<!
0=!
0>!
#565000
1!
1<!
1=!
1>!
1A!
1:!
09!
1B!
0@!
14!
#565001
1c"
1]"
1\"
0["
1Z"
1W"
1V"
1U"
0R"
1?"
19"
18"
07"
16"
13"
12"
11"
0."
0g
1j
1k
1l
1o
0p
1q
1r
1x
1g!
1!"
0~!
0v!
1I
1C
1B
0A
1@
1=
1<
1;
08
1("
1'"
1,!
1-!
1a
1%!
0&!
0O
1*
11
1/
1+
#570000
0!
0<!
0=!
0>!
#575000
1!
1<!
1=!
1>!
0A!
0:!
17!
0B!
1C!
1@!
0?!
04!
0@!
1i!
1j!
12!
1Y
#580000
0!
0<!
0=!
0>!
#585000
1!
1<!
1=!
1>!
18!
07!
0C!
#590000
1)
1(
1&
0!
1F!
1D!
1E!
0<!
1s!
1h!
1^!
1W!
1O!
0=!
0>!
0j!
0Q!
0/!
02!
0Y
0V
0i!
0P!
#595000
1!
1<!
1=!
1>!
19!
08!
1?!
1@!
#600000
0!
0<!
0=!
0>!
#605000
1!
1<!
1=!
1>!
1A!
1:!
09!
1B!
0@!
14!
#605001
0c"
0]"
0Z"
0Y"
0W"
0V"
0?"
09"
06"
05"
03"
02"
0k
0l
0n
0o
0r
0x
0g!
0!"
0I
0C
0@
0?
0=
0<
0("
1k!
0'"
0,!
1z
0-!
1&!
1O
0/
1K
0+
#610000
0&
0!
0E!
0<!
0s!
0h!
0^!
0W!
0O!
0=!
0>!
#615000
1!
1<!
1=!
1>!
0A!
0:!
17!
0B!
1C!
1@!
0?!
04!
0@!
1P!
1Q!
1/!
1V
#620000
0!
0<!
0=!
0>!
#625000
1!
1<!
1=!
1>!
18!
07!
0C!
#630000
0!
0<!
0=!
0>!
#635000
1!
1<!
1=!
1>!
19!
08!
1p!
1e!
1?!
1s!
1q!
1h!
1f!
1@!
1u!
1j!
12!
13!
1g!
1Z
1Y
1r!
#640000
0!
0<!
0=!
0>!
#645000
1!
1<!
1=!
1>!
1A!
1:!
09!
1B!
0@!
0p!
0e!
14!
0s!
0h!
#645001
1d"
0`"
0\"
1@"
0<"
08"
0q
0u
1y
1J
0F
0B
0r!
0N!
0k!
0z
0K
#650000
0!
0<!
0=!
0>!
#655000
1!
1<!
1=!
1>!
0A!
0:!
17!
0B!
1C!
1@!
0?!
04!
0@!
1i!
0P!
0j!
0Q!
0/!
02!
0Y
0V
#660000
0!
0<!
0=!
0>!
#665000
1!
1<!
1=!
1>!
18!
07!
0C!
#670000
0!
0<!
0=!
0>!
#675000
1!
1<!
1=!
1>!
19!
08!
1?!
1@!
#680000
0!
0<!
0=!
0>!
