register2130/simulation/qsim/register2130.msim.vcd
$comment
	File created using the following command:
		vcd file register2130.msim.vcd -direction
$end
$date
	Mon Nov 21 12:14:18 2022
$end
$version
	ModelSim Version 10.5b
$end
$timescale
	1ps
$end

$scope module register2130_vlg_vec_tst $end
$var reg 1 ! CLK $end
$var reg 8 " D [7:0] $end
$var wire 1 # Q [7] $end
$var wire 1 $ Q [6] $end
$var wire 1 % Q [5] $end
$var wire 1 & Q [4] $end
$var wire 1 ' Q [3] $end
$var wire 1 ( Q [2] $end
$var wire 1 ) Q [1] $end
$var wire 1 * Q [0] $end

$scope module i1 $end
$var wire 1 + gnd $end
$var wire 1 , vcc $end
$var wire 1 - unknown $end
$var tri1 1 . devclrn $end
$var tri1 1 / devpor $end
$var tri1 1 0 devoe $end
$var wire 1 1 Q[7]~output_o $end
$var wire 1 2 Q[6]~output_o $end
$var wire 1 3 Q[5]~output_o $end
$var wire 1 4 Q[4]~output_o $end
$var wire 1 5 Q[3]~output_o $end
$var wire 1 6 Q[2]~output_o $end
$var wire 1 7 Q[1]~output_o $end
$var wire 1 8 Q[0]~output_o $end
$var wire 1 9 CLK~input_o $end
$var wire 1 : CLK~inputclkctrl_outclk $end
$var wire 1 ; D[7]~input_o $end
$var wire 1 < 12~feeder_combout $end
$var wire 1 = 12~q $end
$var wire 1 > D[6]~input_o $end
$var wire 1 ? 13~feeder_combout $end
$var wire 1 @ 13~q $end
$var wire 1 A D[5]~input_o $end
$var wire 1 B 14~feeder_combout $end
$var wire 1 C 14~q $end
$var wire 1 D D[4]~input_o $end
$var wire 1 E 15~feeder_combout $end
$var wire 1 F 15~q $end
$var wire 1 G D[3]~input_o $end
$var wire 1 H 16~feeder_combout $end
$var wire 1 I 16~q $end
$var wire 1 J D[2]~input_o $end
$var wire 1 K 17~feeder_combout $end
$var wire 1 L 17~q $end
$var wire 1 M D[1]~input_o $end
$var wire 1 N 18~q $end
$var wire 1 O D[0]~input_o $end
$var wire 1 P 19~feeder_combout $end
$var wire 1 Q 19~q $end
$upscope $end
$upscope $end
$enddefinitions $end
#0
$dumpvars
0!
b11 "
0*
0)
0(
0'
0&
0%
0$
0#
0+
1,
x-
1.
1/
10
01
02
03
04
05
06
07
08
09
0:
0;
0<
0=
0>
0?
0@
0A
0B
0C
0D
0E
0F
0G
0H
0I
0J
0K
0L
1M
0N
1O
1P
0Q
$end
#30000
1!
19
1:
1Q
1N
17
18
1*
1)
#60000
0!
09
0:
#90000
1!
19
1:
#120000
0!
09
0:
#150000
1!
19
1:
#180000
0!
09
0:
#210000
1!
19
1:
#240000
0!
09
0:
#270000
1!
19
1:
#300000
b111 "
0!
1J
09
0:
1K
#330000
1!
19
1:
1L
16
1(
#360000
0!
09
0:
#390000
1!
19
1:
#420000
0!
09
0:
#450000
1!
19
1:
#480000
0!
09
0:
#510000
1!
19
1:
#540000
b110 "
b10 "
0!
0O
0J
09
0:
0P
0K
#570000
1!
19
1:
0Q
0L
06
08
0*
0(
#600000
b11 "
b111 "
0!
1O
1J
09
0:
1P
1K
#630000
1!
19
1:
1Q
1L
16
18
1*
1(
#660000
b1111 "
b1101 "
b1001 "
0!
0M
0J
1G
09
0:
0K
1H
#690000
1!
19
1:
0N
0L
1I
15
06
07
0)
0(
1'
#720000
b1000 "
b0 "
0!
0O
0G
09
0:
0P
0H
#750000
1!
19
1:
0Q
0I
05
08
0*
0'
#780000
b10000000 "
b11000000 "
b11100000 "
b11110000 "
b11110010 "
b11110110 "
b11110111 "
b11111111 "
0!
1O
1M
1J
1G
1D
1A
1>
1;
09
0:
1P
1K
1H
1E
1B
1?
1<
#810000
1!
19
1:
1Q
1N
1L
1I
1F
1C
1@
1=
11
12
13
14
15
16
17
18
1*
1)
1(
1'
1&
1%
1$
1#
#840000
b1111111 "
b111111 "
b11111 "
b1111 "
b1101 "
b1001 "
b1000 "
b0 "
0!
0O
0M
0J
0G
0D
0A
0>
0;
09
0:
0P
0K
0H
0E
0B
0?
0<
#870000
1!
19
1:
0Q
0N
0L
0I
0F
0C
0@
0=
01
02
03
04
05
06
07
08
0*
0)
0(
0'
0&
0%
0$
0#
#900000
0!
09
0:
#930000
1!
19
1:
#960000
0!
09
0:
#990000
1!
19
1:
